Prelminary field trial analysis
…
# A tibble: 4 × 13
  Trait   METdata  fixedFormula   randFormula   rcovFormula       H2 meanHetVarE
  <chr>   <list>   <chr>          <chr>         <chr>          <dbl>       <dbl>
1 DM      <tibble… Value ~ yearI… ~germplasmNa… ~vs(ds(stu…  4.26e-1       9.80 
2 MCMDS   <tibble… Value ~ yearI… ~germplasmNa… ~vs(ds(stu… -3.04e-7       0.205
3 logFYLD <tibble… Value ~ yearI… ~germplasmNa… ~vs(ds(stu…  3.00e-1       0.129
4 logDYLD <tibble… Value ~ yearI… ~germplasmNa… ~vs(ds(stu…  3.47e-1       0.112
# … with 6 more variables: meanNreps <dbl>, modelfit <list>, groups <list>,
#   blups <list>, varcomp <list>, outliers <list>

Show how the BLUPs come out of the function formatted:

blups$blups[[1]]

# A tibble: 1,526 × 6
   germplasmName    BLUP   PEV   REL drgBLUP    WT
   <chr>           <dbl> <dbl> <dbl>   <dbl> <dbl>
 1 50395         -1.02    4.44 0.117  -8.65  0.177
 2 95NA-00063    -0.0285  4.44 0.117  -0.243 0.177
 3 ANKRA         -0.760   4.44 0.117  -6.47  0.177
 4 BAHKYEHEMAA    0.924   4.44 0.117   7.87  0.177
 5 BANGWEULU      0.331   4.44 0.117   2.82  0.177
 6 BOUNOUA_BLANC  1.02    4.44 0.117   8.68  0.177
 7 CE85           0.545   4.44 0.117   4.64  0.177
 8 CH92108        0.209   4.44 0.117   1.78  0.177
 9 DOKUNBAHKYE    0.924   4.44 0.117   7.87  0.177
10 ESAMBAHKYE     0.449   4.44 0.117   3.83  0.177
# … with 1,516 more rows
…
