Introduction to Genomic Prediction in R
…
Cross-validation

Cross-validation functions get complicated quickly as they have loops within loops.

I built a function runCrossVal() that fits several different models, handles multiple traits, can run in-parallel across mutiple compute-cores and even accepts selection index weights to compute selection index accuracy. runCrossVal() is included in the genomicMateSelectR package.

Below, I use it on only 1 trait, additive-only model.

NOTES: - doesn’t work properly unless gid="GID". - It also requires you to remove any phenotyped lines that aren’t genotyped.

Following chunk does both of those:

blups$blups[[1]]

# A tibble: 1,526 × 6
   germplasmName    BLUP   PEV   REL drgBLUP    WT
   <chr>           <dbl> <dbl> <dbl>   <dbl> <dbl>
 1 50395         -1.02    4.44 0.117  -8.65  0.177
 2 95NA-00063    -0.0285  4.44 0.117  -0.243 0.177
 3 ANKRA         -0.760   4.44 0.117  -6.47  0.177
 4 BAHKYEHEMAA    0.924   4.44 0.117   7.87  0.177
 5 BANGWEULU      0.331   4.44 0.117   2.82  0.177
 6 BOUNOUA_BLANC  1.02    4.44 0.117   8.68  0.177
 7 CE85           0.545   4.44 0.117   4.64  0.177
 8 CH92108        0.209   4.44 0.117   1.78  0.177
 9 DOKUNBAHKYE    0.924   4.44 0.117   7.87  0.177
10 ESAMBAHKYE     0.449   4.44 0.117   3.83  0.177
# … with 1,516 more rows
…
blups_forRunCrossValFunc$TrainingData[[1]]

# A tibble: 962 × 6
   GID                    BLUP   PEV   REL drgBLUP    WT
   <chr>                 <dbl> <dbl> <dbl>   <dbl> <dbl>
 1 50395               -1.02    4.44 0.117  -8.65  0.177
 2 95NA-00063          -0.0285  4.44 0.117  -0.243 0.177
 3 BAHKYEHEMAA          0.924   4.44 0.117   7.87  0.177
 4 BOUNOUA_BLANC        1.02    4.44 0.117   8.68  0.177
 5 CH92108              0.209   4.44 0.117   1.78  0.177
 6 DOKUNBAHKYE          0.924   4.44 0.117   7.87  0.177
 7 ESAMBAHKYE           0.449   4.44 0.117   3.83  0.177
 8 IITA-TMS-BAD9100455  0.408   4.44 0.117   3.47  0.177
 9 IITA-TMS-BAD9200061  0.0849  4.44 0.117   0.722 0.177
10 IITA-TMS-BAD9200068 -0.0338  4.44 0.117  -0.288 0.177
# … with 952 more rows
…
