Run K-fold Cross-validation
…
training(standardCV$splits[[1]])

# A tibble: 771 × 1
   GID                
   <chr>              
 1 50395              
 2 BAHKYEHEMAA        
 3 BOUNOUA_BLANC      
 4 CH92108            
 5 DOKUNBAHKYE        
 6 ESAMBAHKYE         
 7 IITA-TMS-BAD9100455
 8 IITA-TMS-BAD9200061
 9 IITA-TMS-BAD9200068
10 IITA-TMS-BAD92033  
# … with 761 more rows

testing(standardCV$splits[[1]])

# A tibble: 193 × 1
   GID               
   <chr>             
 1 95NA-00063        
 2 IITA-TMS-IBA000214
 3 IITA-TMS-IBA000345
 4 IITA-TMS-IBA000346
 5 IITA-TMS-IBA000355
 6 IITA-TMS-IBA010034
 7 IITA-TMS-IBA010103
 8 IITA-TMS-IBA010131
 9 IITA-TMS-IBA010171
10 IITA-TMS-IBA010615
# … with 183 more rows
…
# A tibble: 6 × 9
  repeats  seeds splits  id    Trait  predOf predVSobs Accuracy NcompleteTestPa…
    <int>  <int> <list>  <chr> <chr>  <chr>  <list>       <dbl>            <dbl>
1       1 395601 <split… Fold1 DM     GEBV   <tibble …  0.158                  4
2       1 395601 <split… Fold1 logFY… GEBV   <tibble … -0.00700                4
3       1 395601 <split… Fold1 logDY… GEBV   <tibble …  0.0299                 4
4       1 395601 <split… Fold1 SELIND GEBV   <tibble …  0.648                  4
5       1 395601 <split… Fold2 DM     GEBV   <tibble …  0.201                  4
6       1 395601 <split… Fold2 logFY… GEBV   <tibble …  0.151                  4

standardCV %>% unnest(accuracyEstOut) %$% predVSobs[[4]] %>% na.omit

# A tibble: 348 × 3
   GID                  GBLUP   BLUP
   <chr>                <dbl>  <dbl>
 1 IITA-TMS-IBA000070   2.97   -5.70
 2 IITA-TMS-IBA070593 -42.1   -70.3 
 3 IITA-TMS-IBA30572   -5.29   -6.50
 4 IITA-TMS-IBA980581  -3.31   -5.04
 5 IITA-TMS-IBA982101  -0.814 -21.7 
 6 TMEB419             16.5    31.3 
 7 TMEB7               18.6    13.7 
 8 TMS13F1021P0008     -7.95  -28.1 
 9 TMS13F1049P0001    -25.8   -11.4 
10 TMS13F1109P0009    -16.7   -23.3 
# … with 338 more rows
…
