Parent-wise Cross-validation
…
 Female_Parent      Male_Parent              n        
 Length:117         Length:117         Min.   :1.000  
 Class :character   Class :character   1st Qu.:1.000  
 Mode  :character   Mode  :character   Median :1.000  
                                       Mean   :1.325  
                                       3rd Qu.:1.000  
                                       Max.   :7.000  

How many families have >1 offspring?

genotyped_ped %>% 
     count(Female_Parent,Male_Parent) %>% 
     filter(n>1)

# A tibble: 21 × 3
   Female_Parent        Male_Parent             n
   <chr>                <chr>               <int>
 1 IITA-TMS-IBA011371   IITA-TMS-IBA011371      4
 2 IITA-TMS-IBA020431   IITA-TMS-IBA030055A     2
 3 IITA-TMS-IBA030060   IITA-TMS-IBA010903      2
 4 IITA-TMS-IBA030060   IITA-TMS-IBA930265      2
 5 IITA-TMS-IBA030060   IITA-TMS-MM970043       3
 6 IITA-TMS-IBA30555    TMEB1                   2
 7 IITA-TMS-IBA4(2)1425 TMEB1                   3
 8 IITA-TMS-IBA8902195  IITA-TMS-IBA950379      2
 9 IITA-TMS-IBA9001554  IITA-TMS-IBA011659      2
10 IITA-TMS-IBA91934    TMEB1                   7
# … with 11 more rows
…
